{
  "collection": "@nestjs/schematics",
  "sourceRoot": "apps/api/src",
  "projects": {
    "auth": {
      "type": "library",
      "root": "libs/auth",
      "entryFile": "index",
      "sourceRoot": "libs/auth/src",
      "compilerOptions": {
        "tsConfigPath": "libs/auth/tsconfig.lib.json"
      }
    },
    "api": {
      "type": "application",
      "root": "apps/api",
      "entryFile": "main",
      "sourceRoot": "apps/api/src",
      "compilerOptions": {
        "tsConfigPath": "apps/api/tsconfig.app.json"
      }
    },
    "events": {
      "type": "application",
      "root": "apps/events",
      "entryFile": "main",
      "sourceRoot": "apps/events/src",
      "compilerOptions": {
        "tsConfigPath": "apps/events/tsconfig.app.json"
      }
    },
    "core": {
      "type": "library",
      "root": "libs/core",
      "entryFile": "index",
      "sourceRoot": "libs/core/src",
      "compilerOptions": {
        "tsConfigPath": "libs/core/tsconfig.lib.json"
      }
    }
  },
  "compilerOptions": {
    "webpack": true,
    "tsConfigPath": "apps/api/tsconfig.app.json",
    "assets": ["apps/api/src/mailer/templates/**/*"],
    "watchAssets": true
  },
  "monorepo": true,
  "root": "apps/api"
}